<?xml version="1.0" encoding="UTF-8"?>
<svg width="58px" height="64px" viewBox="0 0 58 64" version="1.1" xmlns="http://www.w3.org/2000/svg" xmlns:xlink="http://www.w3.org/1999/xlink">
    <!-- Generator: Sketch 63 (92445) - https://sketch.com -->
    <title>产品库</title>
    <desc>Created with Sketch.</desc>
    <defs>
        <linearGradient x1="90.578026%" y1="0%" x2="9.421974%" y2="100%" id="linearGradient-1">
            <stop stop-color="#6DB0FF" offset="0%"></stop>
            <stop stop-color="#407FFF" offset="100%"></stop>
        </linearGradient>
        <linearGradient x1="50%" y1="0.158298791%" x2="50%" y2="100%" id="linearGradient-2">
            <stop stop-color="#FFFFFF" stop-opacity="0.5" offset="0.0791807432%"></stop>
            <stop stop-color="#000000" stop-opacity="0.5" offset="100%"></stop>
        </linearGradient>
        <path d="M32.9886535,1.11491631 L53.4945342,12.953992 C56.0693231,14.4405471 57.6554585,17.1878142 57.6554585,20.1609243 L57.6554585,43.8390757 C57.6554585,46.8121858 56.0693231,49.5594529 53.4945342,51.046008 L32.9886535,62.8850837 C30.4138646,64.3716388 27.2415938,64.3716388 24.6668049,62.8850837 L4.16092431,51.046008 C1.58613539,49.5594529 0,46.8121858 0,43.8390757 L0,20.1609243 C0,17.1878142 1.58613539,14.4405471 4.16092431,12.953992 L24.6668049,1.11491631 C27.2415938,-0.371638769 30.4138646,-0.371638769 32.9886535,1.11491631 Z" id="path-3"></path>
    </defs>
    <g id="客户综合价值分析" stroke="none" stroke-width="1" fill="none" fill-rule="evenodd">
        <g id="2.7-复杂投融" transform="translate(-321.000000, -2911.000000)">
            <g id="编组-18" transform="translate(236.000000, 2911.000000)">
                <g id="产品库" transform="translate(85.000000, 0.000000)">
                    <g id="多边形">
                        <use fill="url(#linearGradient-1)" xlink:href="#path-3"></use>
                        <use fill="url(#linearGradient-2)" xlink:href="#path-3"></use>
                    </g>
                    <g id="案例" transform="translate(17.000000, 19.000000)" fill-rule="nonzero">
                        <rect id="矩形" fill="#000000" opacity="0" x="0" y="0" width="24" height="24"></rect>
                        <path d="M0.137791507,18.5922619 L11.5493505,24.4211908 C11.6148408,24.451639 11.6746013,24.4931331 11.7260143,24.5438556 C11.8673454,24.6838533 12.1146749,24.6838533 12.2740057,24.5438556 C12.3254187,24.4931331 12.3851792,24.451639 12.4506695,24.4211908 L23.9818203,18.7624512 C24.0532703,18.9505646 23.99982,19.0532504 23.99982,19.2632725 C23.99982,19.7192653 23.8224895,20.1399253 23.5044945,20.4559203 C23.4530814,20.5066428 23.393321,20.5481368 23.3278306,20.578585 L13.1233256,25.5611728 C12.8053761,25.8249139 12.40443,25.9677716 11.9913435,25.9645547 C11.5666835,25.9645547 11.1773564,25.8245019 10.8766945,25.5438397 L0.672189352,20.578585 C0.606699035,20.5481368 0.546938563,20.5066427 0.495525492,20.4559203 C0.176717013,20.14118 -0.00183402721,19.7112637 0.000116850273,19.2632725 C0.000116850273,19.0267668 0.0477517767,18.7999171 0.137791507,18.5922619 Z M0.137791507,12.5922619 L11.5493505,18.4211908 C11.6148408,18.451639 11.6746013,18.4931331 11.7260143,18.5438556 C11.8673454,18.6838533 12.1146749,18.6838533 12.2740057,18.5438556 C12.3254187,18.4931331 12.3851792,18.451639 12.4506695,18.4211908 L23.9818203,12.7624512 C24.0532703,12.9505646 23.99982,13.0532504 23.99982,13.2632725 C23.99982,13.7192653 23.8224895,14.1399253 23.5044945,14.4559203 C23.4530814,14.5066428 23.393321,14.5481368 23.3278306,14.578585 L13.1233256,19.5611728 C12.8053761,19.8249139 12.40443,19.9677716 11.9913435,19.9645547 C11.5666835,19.9645547 11.1773564,19.8245019 10.8766945,19.5438397 L0.672189352,14.578585 C0.606699035,14.5481368 0.546938563,14.5066427 0.495525492,14.4559203 C0.176717013,14.14118 -0.00183402721,13.7112637 0.000116850271,13.2632725 C0.000116850271,13.0267668 0.0477517767,12.7999171 0.137791507,12.5922619 Z M11.9913435,0.000133335937 C12.4153368,0.000133335937 12.8046639,0.158130844 13.1233256,0.420793336 L23.4158292,5.96470556 L23.4864948,6.0353711 C23.8051564,6.35069944 23.9818203,6.77202609 23.9818203,7.2280189 C23.9818203,7.68401168 23.8051564,8.10533834 23.4864948,8.42133333 L23.4158292,8.49133221 L13.1233256,13.5085861 C12.8113457,13.784617 12.4078776,13.9347888 11.9913435,13.9300279 C11.5666835,13.9300279 11.1773564,13.7892483 10.8766945,13.5085861 L0.58419075,8.49133221 L0.495525492,8.42133333 C0.176678974,8.10634514 -0.00186262855,7.67621128 0.000182317287,7.2280189 C0.000182317287,6.77202612 0.177530508,6.35069946 0.495525492,6.0353711 L0.566191031,5.96470556 L10.8593614,0.420793336 C11.1712731,0.144725205 11.5748419,-0.00524647727 11.9913435,0.000133335937 Z M11.6906816,1.40344444 L11.620016,1.47344334 L1.36217843,7.00002251 C1.32684565,7.07002139 1.29151289,7.1400203 1.29151289,7.21068584 C1.32684567,7.29801778 1.34417873,7.36801669 1.37951149,7.42134916 L11.6373491,12.42127 L11.7080146,12.4912689 C11.8500124,12.6312667 12.0973418,12.6312667 12.2566726,12.4912689 L12.3273382,12.42127 L22.5851757,7.42134916 C22.6232165,7.35789751 22.6415473,7.28457411 22.6378416,7.21068584 C22.6378416,7.1400203 22.6205085,7.05268833 22.567176,7.00002251 L12.3093384,1.47344334 L12.2386729,1.40344444 C12.0828344,1.26344445 11.8465201,1.26344445 11.6906816,1.40344444 Z" id="形状结合" stroke="#FFFFFF" fill="#FFFFFF"></path>
                    </g>
                </g>
            </g>
        </g>
    </g>
</svg>